r-datastructures
…
Берем датасет diamonds, что нарисовать график про бриллианты

2

Рассчитываем базовые описательные статистики

3

Объединяем агрегированные данные с исходными

4

Разделяем наблюдения на группы

# A tibble: 53,940 × 13
   cut   mean_price_cut sd_price_cut carat color clarity depth table price     x
   <ord>          <dbl>        <dbl> <dbl> <ord> <ord>   <dbl> <dbl> <int> <dbl>
 1 Ideal          3458.        3808.  0.23 E     SI2      61.5    55   326  3.95
 2 Ideal          3458.        3808.  0.23 J     VS1      62.8    56   340  3.93
 3 Ideal          3458.        3808.  0.31 J     SI2      62.2    54   344  4.35
 4 Ideal          3458.        3808.  0.3  I     SI2      62      54   348  4.31
 5 Ideal          3458.        3808.  0.33 I     SI2      61.8    55   403  4.49
 6 Ideal          3458.        3808.  0.33 I     SI2      61.2    56   403  4.49
 7 Ideal          3458.        3808.  0.33 J     SI1      61.1    56   403  4.49
 8 Ideal          3458.        3808.  0.23 G     VS1      61.9    54   404  3.93
 9 Ideal          3458.        3808.  0.32 I     SI1      60.9    55   404  4.45
10 Ideal          3458.        3808.  0.3  I     SI2      61      59   405  4.3 
# ℹ 53,930 more rows
# ℹ 3 more variables: y <dbl>, z <dbl>, price_group <chr>
…
