10 Визуализация в ggplot2 I – WLM SDARP
…
6

Переводим данные в широкий формат — возвращаем на место названия колонок и значения

7

Удаляем техническую переменную id, сохряняем результат предобработки в новую переменную quartet.

Посмотрим, что получилось (Код 10.3). Теперь в колонке dataset содержится номер датасета, а в переменных x и y собственно значения переменных, которые мы хотим изучить.

Код 10.3: Предобработанный квартет Анскомба

quartet

# A tibble: 44 × 3
   dataset     x     y
   <chr>   <dbl> <dbl>
 1 1          10  8.04
 2 2          10  9.14
 3 3          10  7.46
 4 4           8  6.58
 5 1           8  6.95
 6 2           8  8.14
 7 3           8  6.77
 8 4           8  5.76
 9 1          13  7.58
10 2          13  8.74
# ℹ 34 more rows
…
Откуда 2 в названии пакета?

Нет ощущения, что если пакет называется ggplot2, то он — вторая версия некоего пакета ggplot? Однако пакет ggplot вроде как нигде не существует…

Тем не менее, он всё же существовал, как сообщает источник, но был плох, и разработчики решили переписать всё с нуля, создав ныне известный ggplot2. Вторая попытка, как мы увидим, оказалось значительно успешнее и мощнее и обрела невероятную популярность.

10.3.1 Датасет diamonds

Кроме функций из пакета ggplot2, мы будем в примерах использовать датасет diamonds, который тоже содержится в этом пакете. При подключенном пакете он доступен по собственному названию (Код 10.4), из которого следует, что это данные про бриллианты.

Код 10.4: Датасет diamonds

diamonds

# A tibble: 53,940 × 10
   carat cut       color clarity depth table price     x     y     z
   <dbl> <ord>     <ord> <ord>   <dbl> <dbl> <int> <dbl> <dbl> <dbl>
 1  0.23 Ideal     E     SI2      61.5    55   326  3.95  3.98  2.43
 2  0.21 Premium   E     SI1      59.8    61   326  3.89  3.84  2.31
 3  0.23 Good      E     VS1      56.9    65   327  4.05  4.07  2.31
 4  0.29 Premium   I     VS2      62.4    58   334  4.2   4.23  2.63
 5  0.31 Good      J     SI2      63.3    58   335  4.34  4.35  2.75
 6  0.24 Very Good J     VVS2     62.8    57   336  3.94  3.96  2.48
 7  0.24 Very Good I     VVS1     62.3    57   336  3.95  3.98  2.47
 8  0.26 Very Good H     SI1      61.9    55   337  4.07  4.11  2.53
 9  0.22 Fair      E     VS2      65.1    61   337  3.87  3.78  2.49
10  0.23 Very Good H     VS1      59.4    61   338  4     4.05  2.39
# ℹ 53,930 more rows
…
